%YAML 1.1
%TAG !u! tag:unity3d.com,2011:
--- !u!114 &11400000
MonoBehaviour:
  m_ObjectHideFlags: 0
  m_CorrespondingSourceObject: {fileID: 0}
  m_PrefabInstance: {fileID: 0}
  m_PrefabAsset: {fileID: 0}
  m_GameObject: {fileID: 0}
  m_Enabled: 1
  m_EditorHideFlags: 0
  m_Script: {fileID: 11500000, guid: bbb281ee3bf0b054c82ac2347e9e782c, type: 3}
  m_Name: ManagerScenes
  m_EditorClassIdentifier: 
  m_GroupName: ManagerScenes
  m_Data:
    m_SerializedData: []
  m_GUID: dfe42ed4a93459d40971de39a68af846
  m_SerializeEntries:
  - m_GUID: 750c8b90e275f9141a623841c497689a
    m_Address: Authentication
    m_ReadOnly: 0
    m_SerializedLabels: []
  - m_GUID: 6f0774dca9b4b6b47982aa4b3ad5849f
    m_Address: DevelopmentCheatConsole
    m_ReadOnly: 0
    m_SerializedLabels: []
  - m_GUID: edbba30ba78e801489e79e6bd419c2e1
    m_Address: DevelopmentConsole
    m_ReadOnly: 0
    m_SerializedLabels: []
  - m_GUID: 427dc7a949ecc4440b594130738f11bb
    m_Address: DevelopmentPlug
    m_ReadOnly: 0
    m_SerializedLabels: []
  - m_GUID: 57d07493bbfab3a469a0d81e3ba27d22
    m_Address: Gameplay
    m_ReadOnly: 0
    m_SerializedLabels: []
  - m_GUID: ece177b0a12d23d498e78256e9b3b4bb
    m_Address: PersistentManagers
    m_ReadOnly: 0
    m_SerializedLabels: []
  - m_GUID: bc72e0ffe04af7b4abdfeeda607f768c
    m_Address: Tutorial
    m_ReadOnly: 0
    m_SerializedLabels: []
  m_ReadOnly: 0
  m_Settings: {fileID: 11400000, guid: 3bde18aaa9692e747b2bb13875e275b7, type: 2}
  m_SchemaSet:
    m_Schemas:
    - {fileID: 11400000, guid: bde59ef0b4855324190f4d6de514b26b, type: 2}
    - {fileID: 11400000, guid: f5f33473adc443b45b279b80c53c70c7, type: 2}
