%YAML 1.1
%TAG !u! tag:unity3d.com,2011:
--- !u!114 &11400000
MonoBehaviour:
  m_ObjectHideFlags: 0
  m_CorrespondingSourceObject: {fileID: 0}
  m_PrefabInstance: {fileID: 0}
  m_PrefabAsset: {fileID: 0}
  m_GameObject: {fileID: 0}
  m_Enabled: 1
  m_EditorHideFlags: 0
  m_Script: {fileID: 11500000, guid: fdb8326d31800b3468281fa5c4de1dc4, type: 3}
  m_Name: Location_01 (Loading Upgradable)
  m_EditorClassIdentifier: 
  _guid: feeb72ed24dfcf248ae21d973a5e0c51
  description: 
  _sceneType: 0
  _sceneReference:
    m_AssetGUID: 
    m_SubObjectName: 
    m_SubObjectType: 
    m_EditorAssetChanged: 0
  _loadSceneMode: 1
  locationName:
    m_TableReference:
      m_TableCollectionName: 
    m_TableEntryReference:
      m_KeyId: 0
      m_Key: 
    m_FallbackState: 0
    m_WaitForCompletion: 0
    m_LocalVariables: []
  _id: 0
  _name: 
  _version: 
  references:
    version: 2
    RefIds: []
