%YAML 1.1
%TAG !u! tag:unity3d.com,2011:
--- !u!114 &11400000
MonoBehaviour:
  m_ObjectHideFlags: 0
  m_CorrespondingSourceObject: {fileID: 0}
  m_PrefabInstance: {fileID: 0}
  m_PrefabAsset: {fileID: 0}
  m_GameObject: {fileID: 0}
  m_Enabled: 1
  m_EditorHideFlags: 0
  m_Script: {fileID: 11500000, guid: df0c7d5592dc7fc4e86fa66ec903f8a0, type: 3}
  m_Name: Preprocessor-Definition-Debug
  m_EditorClassIdentifier: 
  scriptSymbolDefinitions:
  - symbol: USE_ADVERTISEMENT_DEBUG
    enabled: 1
    targetGroup: -1
    isValid: 1
  - symbol: USE_IAP_DEBUG
    enabled: 1
    targetGroup: -1
    isValid: 1
  - symbol: USE_ANALYTICS_DEBUG
    enabled: 1
    targetGroup: -1
    isValid: 1
  - symbol: USE_FIREBASE_ANALYTICS_DEBUG
    enabled: 1
    targetGroup: -1
    isValid: 1
  - symbol: USE_FIREBASE_REMOTE_DEBUG
    enabled: 1
    targetGroup: -1
    isValid: 1
  symbolsToRemoveOnSave: []
  symbolsToAddOnSave:
  - USE_ADVERTISEMENT_DEBUG
  - USE_IAP_DEBUG
  - USE_ANALYTICS_DEBUG
  - USE_FIREBASE_ANALYTICS_DEBUG
  - USE_FIREBASE_REMOTE_DEBUG
