%YAML 1.1
%TAG !u! tag:unity3d.com,2011:
--- !u!114 &11400000
MonoBehaviour:
  m_ObjectHideFlags: 0
  m_CorrespondingSourceObject: {fileID: 0}
  m_PrefabInstance: {fileID: 0}
  m_PrefabAsset: {fileID: 0}
  m_GameObject: {fileID: 0}
  m_Enabled: 1
  m_EditorHideFlags: 0
  m_Script: {fileID: 11500000, guid: fdb8326d31800b3468281fa5c4de1dc4, type: 3}
  m_Name: Tutorial
  m_EditorClassIdentifier: 
  _guid: cf4f9ad0dce37b243a06059d0b9709ba
  description: Tutorial elements.
  _sceneType: 4
  _sceneReference:
    m_AssetGUID: bc72e0ffe04af7b4abdfeeda607f768c
    m_SubObjectName: 
    m_SubObjectType: 
    m_EditorAssetChanged: 0
  _loadSceneMode: 1
