%YAML 1.1
%TAG !u! tag:unity3d.com,2011:
--- !u!21 &-4310455050216915780
Material:
  serializedVersion: 8
  m_ObjectHideFlags: 1
  m_CorrespondingSourceObject: {fileID: 0}
  m_PrefabInstance: {fileID: 0}
  m_PrefabAsset: {fileID: 0}
  m_Name: TextMeshPro/Sprite
  m_Shader: {fileID: 4800000, guid: cf81c85f95fe47e1a27f6ae460cf182c, type: 3}
  m_ValidKeywords: []
  m_InvalidKeywords: []
  m_LightmapFlags: 4
  m_EnableInstancingVariants: 0
  m_DoubleSidedGI: 0
  m_CustomRenderQueue: -1
  stringTagMap: {}
  disabledShaderPasses: []
  m_SavedProperties:
    serializedVersion: 3
    m_TexEnvs:
    - _MainTex:
        m_Texture: {fileID: 2800000, guid: b8d3e88f7aaaaee43b7344beca9f8b87, type: 3}
        m_Scale: {x: 1, y: 1}
        m_Offset: {x: 0, y: 0}
    m_Ints: []
    m_Floats:
    - _ColorMask: 15
    - _CullMode: 0
    - _Stencil: 0
    - _StencilComp: 8
    - _StencilOp: 0
    - _StencilReadMask: 255
    - _StencilWriteMask: 255
    - _UseUIAlphaClip: 0
    m_Colors:
    - _ClipRect: {r: -32767, g: -32767, b: 32767, a: 32767}
    - _Color: {r: 1, g: 1, b: 1, a: 1}
  m_BuildTextureStacks: []
--- !u!114 &11400000
MonoBehaviour:
  m_ObjectHideFlags: 0
  m_CorrespondingSourceObject: {fileID: 0}
  m_PrefabInstance: {fileID: 0}
  m_PrefabAsset: {fileID: 0}
  m_GameObject: {fileID: 0}
  m_Enabled: 1
  m_EditorHideFlags: 0
  m_Script: {fileID: 11500000, guid: 84a92b25f83d49b9bc132d206b370281, type: 3}
  m_Name: QuloText
  m_EditorClassIdentifier: 
  hashCode: -594135046
  material: {fileID: -4310455050216915780}
  materialHashCode: 0
  m_Version: 1.1.0
  m_FaceInfo:
    m_FaceIndex: 0
    m_FamilyName: 
    m_StyleName: 
    m_PointSize: 0
    m_Scale: 0
    m_UnitsPerEM: 0
    m_LineHeight: 0
    m_AscentLine: 0
    m_CapLine: 0
    m_MeanLine: 0
    m_Baseline: 0
    m_DescentLine: 0
    m_SuperscriptOffset: 0
    m_SuperscriptSize: 0
    m_SubscriptOffset: 0
    m_SubscriptSize: 0
    m_UnderlineOffset: 0
    m_UnderlineThickness: 0
    m_StrikethroughOffset: 0
    m_StrikethroughThickness: 0
    m_TabWidth: 0
  spriteSheet: {fileID: 2800000, guid: b8d3e88f7aaaaee43b7344beca9f8b87, type: 3}
  m_SpriteCharacterTable:
  - m_ElementType: 2
    m_Unicode: 65534
    m_GlyphIndex: 0
    m_Scale: 1
    m_Name: QuloText
    m_HashCode: -594135046
  m_SpriteGlyphTable:
  - m_Index: 0
    m_Metrics:
      m_Width: 432
      m_Height: 120
      m_HorizontalBearingX: -216
      m_HorizontalBearingY: 60
      m_HorizontalAdvance: 432
    m_GlyphRect:
      m_X: 0
      m_Y: 0
      m_Width: 432
      m_Height: 120
    m_Scale: 1
    m_AtlasIndex: 0
    m_ClassDefinitionType: 0
    sprite: {fileID: 21300000, guid: b8d3e88f7aaaaee43b7344beca9f8b87, type: 3}
  spriteInfoList: []
  fallbackSpriteAssets: []
