%YAML 1.1
%TAG !u! tag:unity3d.com,2011:
--- !u!114 &11400000
MonoBehaviour:
  m_ObjectHideFlags: 0
  m_CorrespondingSourceObject: {fileID: 0}
  m_PrefabInstance: {fileID: 0}
  m_PrefabAsset: {fileID: 0}
  m_GameObject: {fileID: 0}
  m_Enabled: 1
  m_EditorHideFlags: 0
  m_Script: {fileID: 11500000, guid: e9620f8c34305754d8cc9a7e49e852d9, type: 3}
  m_Name: ui.authorization_ru
  m_EditorClassIdentifier: 
  m_LocaleId:
    m_Code: ru
  m_SharedData: {fileID: 11400000, guid: 5b4cb21e4aff9494a9a963b08d0a5f04, type: 2}
  m_Metadata:
    m_Items: []
  m_TableData:
  - m_Id: 137132232704
    m_Localized: "\u0412\u0432\u0435\u0434\u0438\u0442\u0435 \u0434\u0430\u043D\u043D\u044B\u0435
      \n\u0434\u043B\u044F \u0430\u0432\u0442\u043E\u0440\u0438\u0437\u0430\u0446\u0438\u0438
      \u0432 \u0441\u0438\u0441\u0442\u0435\u043C\u0435:"
    m_Metadata:
      m_Items: []
  - m_Id: 2244086321152
    m_Localized: "\u0438\u043B\u0438"
    m_Metadata:
      m_Items: []
  - m_Id: 4963341684736
    m_Localized: "\u0412\u0432\u0435\u0434\u0438\u0442\u0435 E-mail"
    m_Metadata:
      m_Items: []
  - m_Id: 5470751805440
    m_Localized: "\u0417\u0430\u043F\u043E\u043C\u043D\u0438\u0442\u044C \u0434\u0430\u043D\u043D\u044B\u0435"
    m_Metadata:
      m_Items: []
  - m_Id: 5790642982912
    m_Localized: "\u0410\u0432\u0442\u043E\u0440\u0438\u0437\u0430\u0446\u0438\u044F
      \u0432 \u0441\u0438\u0441\u0442\u0435\u043C\u0435 QULO"
    m_Metadata:
      m_Items: []
  - m_Id: 6262493794304
    m_Localized: "\u0415\u0441\u043B\u0438 \u0432\u044B \u0443\u0436\u0435 \u0440\u0435\u0433\u0438\u0441\u0442\u0440\u0438\u0440\u043E\u0432\u0430\u043B\u0438
      \u043A\u043E\u043C\u043F\u0430\u043D\u0438\u044E"
    m_Metadata:
      m_Items: []
  - m_Id: 25540156706816
    m_Localized: "\u0412\u0432\u0435\u0434\u0438\u0442\u0435 \u043F\u0430\u0440\u043E\u043B\u044C"
    m_Metadata:
      m_Items: []
  - m_Id: 26015144857600
    m_Localized: "\u0417\u0430\u0431\u044B\u043B\u0438 \u043F\u0430\u0440\u043E\u043B\u044C?"
    m_Metadata:
      m_Items: []
  - m_Id: 26552959488000
    m_Localized: "\u0412\u044B\u043F\u043E\u043B\u043D\u0438\u0442\u044C \u0432\u0445\u043E\u0434
      \u0432 \u0441\u0438\u0441\u0442\u0435\u043C\u0443"
    m_Metadata:
      m_Items: []
  - m_Id: 26982653349888
    m_Localized: "\u0412\u0432\u0435\u0434\u0435\u043D\u043D\u044B\u0439 \u0432\u0430\u043C\u0438
      e-mail, \u0438\u043B\u0438 \u043F\u0430\u0440\u043E\u043B\u044C, \u043D\u0435
      \u043F\u043E\u0434\u0445\u043E\u0434\u044F\u0442"
    m_Metadata:
      m_Items: []
  - m_Id: 28057368252416
    m_Localized: "\u0414\u041E\u0411\u0420\u041E \u041F\u041E\u0416\u0410\u041B\u041E\u0412\u0410\u0422\u042C
      \u0412     <voffset=0.3em><size=38> <sprite=0> </size>"
    m_Metadata:
      m_Items: []
  - m_Id: 28626120069120
    m_Localized: "\u0412\u0410\u0421 \u041F\u0420\u0418\u0412\u0415\u0422\u0421\u0422\u0412\u0423\u0415\u0422
      \u0418\u041D\u0422\u0415\u041B\u041B\u0415\u041A\u0422\u0423\u0410\u041B\u042C\u041D\u0410\u042F  
      \u0421\u0418\u0421\u0422\u0415\u041C\u0410    <voffset=0.3em><size=38> <sprite=0>
      </size>"
    m_Metadata:
      m_Items: []
  - m_Id: 34059522134016
    m_Localized: "\u041F\u0440\u043E\u0432\u0435\u0440\u044C\u0442\u0435 \u0432\u0430\u0448\u0443
      \u043F\u043E\u0447\u0442\u0443, \r\n\u043C\u044B \u0432\u044B\u0441\u043B\u0430\u043B\u0438
      \u043F\u0430\u0440\u043E\u043B\u044C"
    m_Metadata:
      m_Items: []
  - m_Id: 34879990910976
    m_Localized: "\u0415\u0441\u043B\u0438 \u0432\u044B \u0435\u0449\u0451 \u043D\u0435
      \u0437\u0430\u0440\u0435\u0433\u0438\u0441\u0442\u0440\u0438\u0440\u043E\u0432\u0430\u043B\u0438
      \u043A\u043E\u043C\u043F\u0430\u043D\u0438\u044E"
    m_Metadata:
      m_Items: []
  - m_Id: 35373077483520
    m_Localized: "\u0412\u0432\u0435\u0434\u0438\u0442\u0435 e-mail, \u0438 \u044F
      \u0443\u0441\u043B\u0443\u0436\u043B\u0438\u0432\u043E \u0432\u044B\u0448\u043B\u044E
      \u0432\u0430\u043C \u043F\u0430\u0440\u043E\u043B\u044C "
    m_Metadata:
      m_Items: []
  - m_Id: 36026180947968
    m_Localized: "\u0412\u0441\u043F\u043E\u043C\u043D\u0438\u043B\u0438 \u043F\u0430\u0440\u043E\u043B\u044C?
      \u0422\u043E\u0433\u0434\u0430 \u0432\u043E\u0437\u0432\u0440\u0430\u0449\u0430\u0439\u0442\u0435\u0441\u044C"
    m_Metadata:
      m_Items: []
  - m_Id: 36488225476608
    m_Localized: "\u0417\u0430\u043F\u0440\u043E\u0441\u0438\u0442\u044C \u043F\u0430\u0440\u043E\u043B\u044C
      \u043A \u0441\u0438\u0441\u0442\u0435\u043C\u0435"
    m_Metadata:
      m_Items: []
  - m_Id: 36843768238080
    m_Localized: "\u0422\u0430\u043A\u043E\u0433\u043E \u043F\u043E\u0447\u0442\u043E\u0432\u043E\u0433\u043E
      \u0430\u0434\u0440\u0435\u0441\u0430 \u043D\u0435\u0442 \u0432 \u0441\u0438\u0441\u0442\u0435\u043C\u0435
      QULO"
    m_Metadata:
      m_Items: []
  - m_Id: 37893854187520
    m_Localized: "\u0412\u0432\u0435\u0434\u0438\u0442\u0435 \u0434\u0430\u043D\u043D\u044B\u0435
      \r\n\u0434\u043B\u044F \u0440\u0435\u0433\u0438\u0441\u0442\u0440\u0430\u0446\u0438\u0438
      \u0432 \u0441\u0438\u0441\u0442\u0435\u043C\u0435"
    m_Metadata:
      m_Items: []
  - m_Id: 38718819258368
    m_Localized: "\u042F \u0441\u043E\u0433\u043B\u0430\u0448\u0430\u044E\u0441\u044C
      \u043F\u043E\u043B\u0443\u0447\u0430\u0442\u044C \u043D\u043E\u0432\u043E\u0441\u0442\u0438
      Qulo \u043D\u0430 \u0441\u0432\u043E\u0439 \u043F\u043E\u0447\u0442\u043E\u0432\u044B\u0439
      \u0430\u0434\u0440\u0435\u0441"
    m_Metadata:
      m_Items: []
  - m_Id: 39071212097536
    m_Localized: "\u042F \u0441\u043E\u0433\u043B\u0430\u0448\u0430\u044E\u0441\u044C
      \u0441 <link=\"www.google.com\"><u>\u043F\u043E\u043B\u044C\u0437\u043E\u0432\u0430\u0442\u0435\u043B\u044C\u0441\u043A\u0438\u043C
      \u0441\u043E\u0433\u043B\u0430\u0448\u0435\u043D\u0438\u0435\u043C</u></link>
      \u0438 <link=\"www.yandex.com\"><u>\u0434\u043E\u0433\u043E\u0432\u043E\u0440\u043E\u043C
      \u043E\u0444\u0435\u0440\u0442\u044B</u></link>"
    m_Metadata:
      m_Items: []
  - m_Id: 39628647682048
    m_Localized: "\u0420\u0435\u0433\u0438\u0441\u0442\u0440\u0430\u0446\u0438\u044F
      \u0432 \u0441\u0438\u0441\u0442\u0435\u043C\u0435 QULO"
    m_Metadata:
      m_Items: []
  - m_Id: 40025500143616
    m_Localized: "\u041F\u0440\u0435\u0436\u0434\u0435, \u0447\u0435\u043C \u043F\u0440\u043E\u0434\u043E\u043B\u0436\u0438\u0442\u044C,
      \u043D\u0435\u043E\u0431\u0445\u043E\u0434\u0438\u043C\u043E \u043F\u0440\u0438\u043D\u044F\u0442\u044C
      \r\n\u043F\u043E\u043B\u044C\u0437\u043E\u0432\u0430\u0442\u0435\u043B\u044C\u0441\u043A\u043E\u0435
      \u0441\u043E\u0433\u043B\u0430\u0448\u0435\u043D\u0438\u0435 \u0438 \u0434\u043E\u0433\u043E\u0432\u043E\u0440
      \u043E\u0444\u0435\u0440\u0442\u044B"
    m_Metadata:
      m_Items: []
  - m_Id: 2483392410537984
    m_Localized: "\u0417\u0430\u0440\u0435\u0433\u0438\u0441\u0442\u0440\u0438\u0440\u043E\u0432\u0430\u0442\u044C\u0441\u044F
      \u0432 \u0441\u0438\u0441\u0442\u0435\u043C\u0435"
    m_Metadata:
      m_Items: []
  - m_Id: 2484263345180672
    m_Localized: "\u0412\u0432\u0435\u0434\u0435\u043D\u043D\u044B\u0435 \u0432\u0430\u043C\u0438
      \u043F\u0430\u0440\u043E\u043B\u0438 \u043D\u0435 \u0441\u043E\u0432\u043F\u0430\u0434\u0430\u044E\u0442"
    m_Metadata:
      m_Items: []
  - m_Id: 2485778797547520
    m_Localized: "\u041F\u043E\u0432\u0442\u043E\u0440\u0438\u0442\u0435 \u043F\u0430\u0440\u043E\u043B\u044C"
    m_Metadata:
      m_Items: []
  - m_Id: 7825190492266496
    m_Localized: "\u041F\u0440\u0438\u043A\u043B\u044E\u0447\u0435\u043D\u0438\u044F"
    m_Metadata:
      m_Items: []
  - m_Id: 7836122983391232
    m_Localized: "\u0421\u0442\u043E\u043B\u0438\u0446\u0430"
    m_Metadata:
      m_Items: []
  - m_Id: 7836346103586816
    m_Localized: "\u041A\u043E\u043D\u0442\u0440\u0430\u043A\u0442\u044B"
    m_Metadata:
      m_Items: []
  - m_Id: 7836806550085632
    m_Localized: "\u0413\u0435\u0440\u043E\u0438"
    m_Metadata:
      m_Items: []
  - m_Id: 7837573814116352
    m_Localized: "\u041F\u043B\u0430\u043D\u0435\u0442\u044B"
    m_Metadata:
      m_Items: []
  - m_Id: 7837756278923264
    m_Localized: "\u0424\u043B\u043E\u0442"
    m_Metadata:
      m_Items: []
  - m_Id: 7838213709717504
    m_Localized: "\u0418\u043D\u0436\u0435\u043D\u0435\u0440\u0438\u044F"
    m_Metadata:
      m_Items: []
  - m_Id: 7838534376841216
    m_Localized: "\u0421\u043A\u043B\u0430\u0434\u044B"
    m_Metadata:
      m_Items: []
  - m_Id: 8154217086148608
    m_Localized: "\u0412 \u0440\u0430\u0437\u0440\u0430\u0431\u043E\u0442\u043A\u0435"
    m_Metadata:
      m_Items: []
  references:
    version: 2
    RefIds: []
